public/tmp/vcd/test.vcd
$date
	Wed Nov  2 12:10:01 2016
$end
$version
	ModelSim Version 10.4d
$end
$timescale
	1ps
$end

$scope module testbench $end
$var wire 1 ! clk $end
$var wire 1 " rst $end
$var wire 1 # a_i [3] $end
$var wire 1 $ a_i [2] $end
$var wire 1 % a_i [1] $end
$var wire 1 & a_i [0] $end
$var wire 1 ' b_i [3] $end
$var wire 1 ( b_i [2] $end
$var wire 1 ) b_i [1] $end
$var wire 1 * b_i [0] $end
$var wire 1 + c_o [4] $end
$var wire 1 , c_o [3] $end
$var wire 1 - c_o [2] $end
$var wire 1 . c_o [1] $end
$var wire 1 / c_o [0] $end
$upscope $end
$enddefinitions $end
#0
$dumpvars
0!
0"
0#
1$
0%
1&
0'
1(
0)
1*
x+
x,
x-
x.
x/
$end
#60
1"
0/
0.
0-
0,
0+
#100
1!
#120
0"
#200
0!
0$
0*
#300
1!
1/
1-
#400
0!
1%
1)
0(
#500
1!
#600
0!
0&
1$
0)
1(
#700
1!
0/
1.
0-
1,
#800
0!
1'
#900
1!
0,
1+
